0 0.42749 -0.307435 1.10724		
1 0.326072 0.348141 1.4876			
2 0.24433 -0.205084 1.5241
3 -0.237284 -0.305678 0.977862
4 0.227728 -0.345997 1.0278
5 0.220413 -0.15514 1.80477
6 0.0053599 0.25645 1.28532
7 -0.298511 -0.371976 1.80589
